<?xml version="1.0"?>
<robot name="suro" xmlns:xacro="http://www.ros.org/wiki/xacro">

  <!-- Arguments -->
  <!--
    The robot_namespace argument has to be set mandatory by the user when calling the xacro
    file or using the following line to set it as default.
    <xacro:arg name="robot_namespace" default="girona500"/>
  -->
  <xacro:arg name="robot_xacro" default="$(find suro_description)/urdf/core.urdf.xacro"/>

  <!-- Load basic SURO urdf -->
  <xacro:include filename="$(arg robot_xacro)"/>

  <!-- Modem -->
  <xacro:add_to_base_link_no_mesh element="modem">
    <origin rpy="0 0 0" xyz="-0.07826 0.0 0.41509"/>
  </xacro:add_to_base_link_no_mesh>

  <!-- Multibeam -->
  <xacro:add_to_base_link_no_mesh element="multibeam">
    <origin rpy="0 -${pi/2} ${pi}" xyz="0.45 0 0.55"/>
  </xacro:add_to_base_link_no_mesh>

</robot>
